Hi for the 1. time 
Hi for the 2. time 
Hi for the 3. time 
Hi for the 4. time 
Hi for the 5. time 
Hi for the 6. time 
Hi for the 7. time 
Hi for the 8. time 
Hi for the 9. time 
Hi for the 10. time 
